…
We need two additional helper tables. The first one will contain number
of R users and their median annual USD salary by country.

``` r
# number of respondents using R by country
country_n_r_users <- 
  data_r %>% 
  group_by(Country) %>% 
  summarise(n_r_users = n(), median_convertedcomp = round(median(ConvertedComp)))
  
country_n_r_users %>% arrange(desc(n_r_users))
```

    ## # A tibble: 109 x 3
    ##    Country        n_r_users median_convertedcomp
    ##    <chr>              <int>                <dbl>
    ##  1 United States       1100               110000
    ##  2 Germany              197                61872
    ##  3 United Kingdom       190                68695
    ##  4 India                149                10920
    ##  5 Canada               105                64888
    ##  6 Netherlands           85                54996
    ##  7 France                81                41247
    ##  8 Brazil                80                16062
    ##  9 Australia             79                78332
    ## 10 Spain                 64                32254
    ## # ... with 99 more rows
The second table will contain country-continent information. We can use
the handy `countrycode::countrycode` function for this task:

``` r
# country - continent table
countries <- 
  data %>% 
  filter(!grepl('Other Country', Country)) %>% 
  distinct(Country) %>% 
  mutate(continent = countrycode(sourcevar = Country, origin = "country.name", destination = "continent"))

countries
```

    ## # A tibble: 179 x 2
    ##    Country                continent
    ##    <chr>                  <chr>    
    ##  1 United Kingdom         Europe   
    ##  2 Bosnia and Herzegovina Europe   
    ##  3 Thailand               Asia     
    ##  4 United States          Americas 
    ##  5 Ukraine                Europe   
    ##  6 Canada                 Americas 
    ##  7 India                  Asia     
    ##  8 New Zealand            Oceania  
    ##  9 Antigua and Barbuda    Americas 
    ## 10 Germany                Europe   
    ## # ... with 169 more rows
…
