…
# data import -------------------------------------------------------------
# source: http://www.mojmalcek.si/clanki_in_nasveti/nosecnost/118/650_imen_za_novorojencka.html

names <- read_csv('data/names.txt') %>% clean_names()


# data cleaning -----------------------------------------------------------

names <- names %>% filter(str_length(name) > 1)
names
```

    ## # A tibble: 667 x 1
    ##    name    
    ##    <chr>   
    ##  1 ADA     
    ##  2 ADAM    
    ##  3 ADELA   
    ##  4 ADELAJDA
    ##  5 ADRIJAN 
    ##  6 ADRIJANA
    ##  7 AGATA   
    ##  8 AJA     
    ##  9 AJDA    
    ## 10 AJETA   
    ## # ... with 657 more rows
…
